Day 3: Testing models, predictions & model uncertainty
…
---

# `predict()`

```r
new_flu <- with(flu2010, tibble(week_centered = seq(min(week_centered), max(week_centered), length.out = 100),
                                 tests_total = 1))
pred <- predict(flu2010_posmod, newdata = new_flu, se.fit = TRUE, type = 'link')
pred <- bind_cols(new_flu, as_tibble(as.data.frame(pred)))
pred
```

```
## # A tibble: 100 x 4
##    week_centered tests_total   fit se.fit
##            <dbl>       <dbl> <dbl>  <dbl>
##  1        -11              1 -4.65  0.358
##  2        -10.5            1 -4.70  0.304
##  3         -9.97           1 -4.73  0.258
##  4         -9.45           1 -4.75  0.224
##  5         -8.94           1 -4.75  0.201
##  6         -8.42           1 -4.72  0.187
##  7         -7.91           1 -4.66  0.179
##  8         -7.39           1 -4.56  0.170
##  9         -6.88           1 -4.44  0.159
## 10         -6.36           1 -4.29  0.146
## # ... with 90 more rows
```
---

# `predict()` &rarr; response scale

```r
ilink <- inv_link(flu2010_posmod)                         # inverse link function
crit <- qnorm((1 - 0.89) / 2, lower.tail = FALSE) # or just `crit <- 2`
pred <- mutate(pred, pos_rate = ilink(fit),
               lwr = ilink(fit - (crit * se.fit)), # lower...
               upr = ilink(fit + (crit * se.fit))) # upper credible interval
pred
```

```
## # A tibble: 100 x 7
##    week_centered tests_total   fit se.fit pos_rate     lwr    upr
##            <dbl>       <dbl> <dbl>  <dbl>    <dbl>   <dbl>  <dbl>
##  1        -11              1 -4.65  0.358  0.00951 0.00537 0.0169
##  2        -10.5            1 -4.70  0.304  0.00913 0.00562 0.0148
##  3         -9.97           1 -4.73  0.258  0.00882 0.00584 0.0133
##  4         -9.45           1 -4.75  0.224  0.00865 0.00605 0.0124
##  5         -8.94           1 -4.75  0.201  0.00866 0.00628 0.0119
##  6         -8.42           1 -4.72  0.187  0.00893 0.00662 0.0120
##  7         -7.91           1 -4.66  0.179  0.00949 0.00713 0.0126
##  8         -7.39           1 -4.56  0.170  0.0104  0.00794 0.0137
##  9         -6.88           1 -4.44  0.159  0.0118  0.00913 0.0152
## 10         -6.36           1 -4.29  0.146  0.0136  0.0108  0.0172
## # ... with 90 more rows
```
…
